cpu_multiciclo_tb.vcd
$date
	Tue Dec  9 14:54:29 2025
$end
$version
	Icarus Verilog
$end
$timescale
	1ps
$end
$scope module tb_cpu $end
$var wire 32 ! WB_Result_Out [31:0] $end
$var wire 32 " PC_Out [31:0] $end
$var reg 1 # clk $end
$var reg 1 $ reset $end
$scope module uut $end
$var wire 1 % PCSrcE $end
$var wire 32 & PC_Out [31:0] $end
$var wire 32 ' WB_Result_Out [31:0] $end
$var wire 1 # clk $end
$var wire 1 $ reset $end
$var wire 1 ( ZeroE $end
$var wire 32 ) WriteDataM [31:0] $end
$var wire 32 * WriteDataE [31:0] $end
$var wire 1 + StallF $end
$var wire 1 , StallD $end
$var wire 32 - SrcBE [31:0] $end
$var wire 32 . SrcAE [31:0] $end
$var wire 5 / Rs2E [4:0] $end
$var wire 5 0 Rs1E [4:0] $end
$var wire 32 1 ResultW [31:0] $end
$var wire 2 2 ResultSrcW [1:0] $end
$var wire 2 3 ResultSrcM [1:0] $end
$var wire 2 4 ResultSrcE [1:0] $end
$var wire 2 5 ResultSrcD [1:0] $end
$var wire 1 6 RegWriteW $end
$var wire 1 7 RegWriteM $end
$var wire 1 8 RegWriteE $end
$var wire 1 9 RegWriteD $end
$var wire 32 : ReadDataW [31:0] $end
$var wire 32 ; ReadDataM [31:0] $end
$var wire 5 < RdW [4:0] $end
$var wire 5 = RdM [4:0] $end
$var wire 5 > RdE [4:0] $end
$var wire 32 ? RD2E [31:0] $end
$var wire 32 @ RD2D [31:0] $end
$var wire 32 A RD1E [31:0] $end
$var wire 32 B RD1D [31:0] $end
$var wire 32 C PCTargetE [31:0] $end
$var wire 32 D PCPlus4W [31:0] $end
$var wire 32 E PCPlus4M [31:0] $end
$var wire 32 F PCPlus4F [31:0] $end
$var wire 32 G PCPlus4E [31:0] $end
$var wire 32 H PCPlus4D [31:0] $end
$var wire 32 I PCF_Next [31:0] $end
$var wire 32 J PCF [31:0] $end
$var wire 32 K PCE [31:0] $end
$var wire 32 L PCD [31:0] $end
$var wire 1 M MemWriteM $end
$var wire 1 N MemWriteE $end
$var wire 1 O MemWriteD $end
$var wire 1 P JumpE $end
$var wire 1 Q JumpD $end
$var wire 32 R InstrF [31:0] $end
$var wire 32 S InstrD [31:0] $end
$var wire 2 T ImmSrcD [1:0] $end
$var wire 32 U ImmExtE [31:0] $end
$var wire 32 V ImmExtD [31:0] $end
$var wire 2 W ForwardBE [1:0] $end
$var wire 2 X ForwardAE [1:0] $end
$var wire 1 Y FlushE $end
$var wire 1 Z FlushD $end
$var wire 1 [ BranchE $end
$var wire 1 \ BranchD $end
$var wire 1 ] ALUSrcE $end
$var wire 1 ^ ALUSrcD $end
$var wire 32 _ ALUResultW [31:0] $end
$var wire 32 ` ALUResultM [31:0] $end
$var wire 32 a ALUResultE [31:0] $end
$var wire 3 b ALUControlE [2:0] $end
$var wire 3 c ALUControlD [2:0] $end
$scope module alu $end
$var wire 3 d funct3 [2:0] $end
$var wire 7 e funct7 [6:0] $end
$var wire 1 ( zero $end
$var wire 32 f operand2 [31:0] $end
$var wire 32 g operand1 [31:0] $end
$var wire 3 h ALUControl [2:0] $end
$var reg 32 i result [31:0] $end
$upscope $end
$scope module branch_adder $end
$var wire 32 j in2 [31:0] $end
$var wire 32 k in1 [31:0] $end
$var reg 32 l out [31:0] $end
$upscope $end
$scope module cu $end
$var wire 3 m funct3 [2:0] $end
$var wire 7 n funct7 [6:0] $end
$var wire 7 o op [6:0] $end
$var reg 3 p ALUControlD [2:0] $end
$var reg 1 ^ ALUSrcD $end
$var reg 1 \ BranchD $end
$var reg 2 q ImmSrcD [1:0] $end
$var reg 1 Q JumpD $end
$var reg 1 O MemWriteD $end
$var reg 1 9 RegWriteD $end
$var reg 2 r ResultSrcD [1:0] $end
$upscope $end
$scope module dmem $end
$var wire 32 s RD [31:0] $end
$var wire 1 # clk $end
$var wire 1 $ reset $end
$var wire 1 M WE $end
$var wire 32 t WD [31:0] $end
$var wire 32 u A [31:0] $end
$var integer 32 v idx [31:0] $end
$upscope $end
$scope module fu $end
$var wire 5 w Rs2E [4:0] $end
$var wire 5 x Rs1E [4:0] $end
$var wire 1 6 RegWriteW $end
$var wire 1 7 RegWriteM $end
$var wire 5 y RdW [4:0] $end
$var wire 5 z RdM [4:0] $end
$var reg 2 { ForwardAE [1:0] $end
$var reg 2 | ForwardBE [1:0] $end
$upscope $end
$scope module hu $end
$var wire 1 Z FlushD $end
$var wire 1 Y FlushE $end
$var wire 1 % PCSrcE $end
$var wire 5 } Rs1D [4:0] $end
$var wire 5 ~ Rs2D [4:0] $end
$var wire 1 !" lwStall $end
$var wire 1 + StallF $end
$var wire 1 , StallD $end
$var wire 2 "" ResultSrcE [1:0] $end
$var wire 5 #" RdE [4:0] $end
$upscope $end
$scope module ig $end
$var wire 2 $" immSel [1:0] $end
$var wire 32 %" instruction [31:0] $end
$var reg 32 &" Imm [31:0] $end
$upscope $end
$scope module imem $end
$var wire 32 '" instruction [31:0] $end
$var wire 32 (" address [31:0] $end
$upscope $end
$scope module mux31A $end
$var wire 2 )" sel [1:0] $end
$var wire 32 *" f [31:0] $end
$var wire 32 +" c [31:0] $end
$var wire 32 ," b [31:0] $end
$var wire 32 -" a [31:0] $end
$upscope $end
$scope module mux31B $end
$var wire 2 ." sel [1:0] $end
$var wire 32 /" f [31:0] $end
$var wire 32 0" c [31:0] $end
$var wire 32 1" b [31:0] $end
$var wire 32 2" a [31:0] $end
$upscope $end
$scope module mux31C $end
$var wire 2 3" sel [1:0] $end
$var wire 32 4" f [31:0] $end
$var wire 32 5" c [31:0] $end
$var wire 32 6" b [31:0] $end
$var wire 32 7" a [31:0] $end
$upscope $end
$scope module mux_alu_src $end
$var wire 32 8" a [31:0] $end
$var wire 1 ] sel $end
$var wire 32 9" f [31:0] $end
$var wire 32 :" b [31:0] $end
$upscope $end
$scope module mux_pc_src $end
$var wire 32 ;" b [31:0] $end
$var wire 1 % sel $end
$var wire 32 <" f [31:0] $end
$var wire 32 =" a [31:0] $end
$upscope $end
$scope module pc_adder $end
$var wire 32 >" in2 [31:0] $end
$var wire 32 ?" in1 [31:0] $end
$var reg 32 @" out [31:0] $end
$upscope $end
$scope module prog_counter $end
$var wire 1 + StallF $end
$var wire 1 # clk $end
$var wire 32 A" pc_in [31:0] $end
$var wire 1 $ reset $end
$var reg 32 B" pc_out [31:0] $end
$upscope $end
$scope module reg_ex_mem $end
$var wire 32 C" ALUResultE [31:0] $end
$var wire 32 D" WriteDataE [31:0] $end
$var wire 1 # clk $end
$var wire 1 $ reset $end
$var wire 2 E" ResultSrcE [1:0] $end
$var wire 1 8 RegWriteE $end
$var wire 5 F" RdE [4:0] $end
$var wire 32 G" PCPlus4E [31:0] $end
$var wire 1 N MemWriteE $end
$var reg 32 H" ALUResultM [31:0] $end
$var reg 1 M MemWriteM $end
$var reg 32 I" PCPlus4M [31:0] $end
$var reg 5 J" RdM [4:0] $end
$var reg 1 7 RegWriteM $end
$var reg 2 K" ResultSrcM [1:0] $end
$var reg 32 L" WriteDataM [31:0] $end
$upscope $end
$scope module reg_id_ex $end
$var wire 3 M" ALUControlD [2:0] $end
$var wire 1 ^ ALUSrcD $end
$var wire 1 \ BranchD $end
$var wire 1 Y FlushE $end
$var wire 32 N" ImmExtD [31:0] $end
$var wire 1 Q JumpD $end
$var wire 1 O MemWriteD $end
$var wire 5 O" RdD [4:0] $end
$var wire 1 9 RegWriteD $end
$var wire 2 P" ResultSrcD [1:0] $end
$var wire 5 Q" Rs1D [4:0] $end
$var wire 5 R" Rs2D [4:0] $end
$var wire 1 # clk $end
$var wire 3 S" funct3D [2:0] $end
$var wire 7 T" funct7D [6:0] $end
$var wire 1 $ reset $end
$var wire 32 U" RD2D [31:0] $end
$var wire 32 V" RD1D [31:0] $end
$var wire 32 W" PCPlus4D [31:0] $end
$var wire 32 X" PCD [31:0] $end
$var reg 3 Y" ALUControlE [2:0] $end
$var reg 1 ] ALUSrcE $end
$var reg 1 [ BranchE $end
$var reg 32 Z" ImmExtE [31:0] $end
$var reg 1 P JumpE $end
$var reg 1 N MemWriteE $end
$var reg 32 [" PCE [31:0] $end
$var reg 32 \" PCPlus4E [31:0] $end
$var reg 32 ]" RD1E [31:0] $end
$var reg 32 ^" RD2E [31:0] $end
$var reg 5 _" RdE [4:0] $end
$var reg 1 8 RegWriteE $end
$var reg 2 `" ResultSrcE [1:0] $end
$var reg 5 a" Rs1E [4:0] $end
$var reg 5 b" Rs2E [4:0] $end
$var reg 3 c" funct3E [2:0] $end
$var reg 7 d" funct7E [6:0] $end
$upscope $end
$scope module reg_if_id $end
$var wire 1 Z FlushD $end
$var wire 32 e" PCF [31:0] $end
$var wire 32 f" PCPlus4F [31:0] $end
$var wire 32 g" RD [31:0] $end
$var wire 1 , StallD $end
$var wire 1 # clk $end
$var wire 1 $ reset $end
$var reg 32 h" InstrD [31:0] $end
$var reg 32 i" PCD [31:0] $end
$var reg 32 j" PCPlus4D [31:0] $end
$upscope $end
$scope module reg_mem_wb $end
$var wire 32 k" ALUResultM [31:0] $end
$var wire 32 l" PCPlus4M [31:0] $end
$var wire 32 m" RD [31:0] $end
$var wire 5 n" RdM [4:0] $end
$var wire 1 7 RegWriteM $end
$var wire 2 o" ResultSrcM [1:0] $end
$var wire 1 # clk $end
$var wire 1 $ reset $end
$var reg 32 p" ALUResultW [31:0] $end
$var reg 32 q" PCPlus4W [31:0] $end
$var reg 5 r" RdW [4:0] $end
$var reg 32 s" ReadDataW [31:0] $end
$var reg 1 6 RegWriteW $end
$var reg 2 t" ResultSrcW [1:0] $end
$upscope $end
$scope module rf $end
$var wire 5 u" A1 [4:0] $end
$var wire 5 v" A2 [4:0] $end
$var wire 5 w" A3 [4:0] $end
$var wire 32 x" WD3 [31:0] $end
$var wire 1 6 WE3 $end
$var wire 1 # clk $end
$var wire 1 $ rst $end
$var wire 32 y" RD2 [31:0] $end
$var wire 32 z" RD1 [31:0] $end
$var integer 32 {" i [31:0] $end
$upscope $end
$upscope $end
$upscope $end
$enddefinitions $end
#0
$dumpvars
b0 {"
b0 z"
b0 y"
b0 x"
b0 w"
b0 v"
b0 u"
b0 t"
b0 s"
b0 r"
b0 q"
b0 p"
b0 o"
b0 n"
bx m"
b0 l"
b0 k"
b0 j"
b0 i"
b0 h"
b10100000000000010010011 g"
b100 f"
b0 e"
b0 d"
b0 c"
b0 b"
b0 a"
b0 `"
b0 _"
b0 ^"
b0 ]"
b0 \"
b0 ["
b0 Z"
b0 Y"
b0 X"
b0 W"
b0 V"
b0 U"
b0 T"
b0 S"
b0 R"
b0 Q"
b0 P"
b0 O"
b0 N"
b0 M"
b0 L"
b0 K"
b0 J"
b0 I"
b0 H"
b0 G"
b0 F"
b0 E"
b0 D"
b0 C"
b0 B"
b100 A"
b100 @"
b0 ?"
b100 >"
b100 ="
b100 <"
b0 ;"
b0 :"
b0 9"
b0 8"
b0 7"
b0 6"
b0 5"
b0 4"
b0 3"
b0 2"
b0 1"
b0 0"
b0 /"
b0 ."
b0 -"
b0 ,"
b0 +"
b0 *"
b0 )"
b0 ("
b10100000000000010010011 '"
b0 &"
b0 %"
b0 $"
b0 #"
b0 ""
0!"
b0 ~
b0 }
b0 |
b0 {
b0 z
b0 y
b0 x
b0 w
bx v
b0 u
b0 t
bx s
b0 r
b0 q
b0 p
b0 o
b0 n
b0 m
b0 l
b0 k
b0 j
b0 i
b0 h
b0 g
b0 f
b0 e
b0 d
b0 c
b0 b
b0 a
b0 `
b0 _
0^
0]
0\
0[
0Z
0Y
b0 X
b0 W
b0 V
b0 U
b0 T
b0 S
b10100000000000010010011 R
0Q
0P
0O
0N
0M
b0 L
b0 K
b0 J
b100 I
b0 H
b0 G
b100 F
b0 E
b0 D
b0 C
b0 B
b0 A
b0 @
b0 ?
b0 >
b0 =
b0 <
bx ;
b0 :
09
08
07
06
b0 5
b0 4
b0 3
b0 2
b0 1
b0 0
b0 /
b0 .
b0 -
0,
0+
b0 *
b0 )
1(
b0 '
b0 &
0%
1$
0#
b0 "
b0 !
$end
#5000
b0 ;
b0 s
b0 m"
b100000 {"
b100000000 v
1#
#10000
0#
#15000
b100000000 v
b100000 {"
1#
#20000
0#
0$
#25000
1^
19
b1000 I
b1000 <"
b1000 A"
b1 O"
b101 R"
b101 v"
b10011 o
b101 ~
b101 V
b101 &"
b101 N"
b1100000000000100010011 R
b1100000000000100010011 '"
b1100000000000100010011 g"
b1000 F
b1000 ="
b1000 @"
b1000 f"
b10100000000000010010011 S
b10100000000000010010011 %"
b10100000000000010010011 h"
b100 H
b100 W"
b100 j"
b100 "
b100 &
b100 J
b100 ("
b100 ?"
b100 B"
b100 e"
1#
#30000
0#
#35000
0(
b101 a
b101 i
b101 C"
b1100 I
b1100 <"
b1100 A"
b1000001000000110110011 R
b1000001000000110110011 '"
b1000001000000110110011 g"
b10 O"
b11 R"
b11 v"
b11 ~
b101 -
b101 f
b101 9"
b1100 F
b1100 ="
b1100 @"
b1100 f"
1^
19
b11 V
b11 &"
b11 N"
b101 C
b101 l
b101 ;"
b1000 "
b1000 &
b1000 J
b1000 ("
b1000 ?"
b1000 B"
b1000 e"
b1100000000000100010011 S
b1100000000000100010011 %"
b1100000000000100010011 h"
b1000 H
b1000 W"
b1000 j"
b100 L
b100 X"
b100 i"
1]
18
b1 >
b1 #"
b1 F"
b1 _"
b101 /
b101 w
b101 b"
b101 U
b101 j
b101 :"
b101 Z"
b100 G
b100 G"
b100 \"
1#
#40000
0#
#45000
b10000 I
b10000 <"
b10000 A"
b11 -
b11 f
b11 9"
0(
b11 a
b11 i
b11 C"
b111 C
b111 l
b111 ;"
b11 O"
b10 R"
b1 Q"
b10 v"
b1 u"
b110011 o
b10 ~
b1 }
0^
19
b10 V
b10 &"
b10 N"
b1000000001000011000001000110011 R
b1000000001000011000001000110011 '"
b1000000001000011000001000110011 g"
b10000 F
b10000 ="
b10000 @"
b10000 f"
17
b1 =
b1 z
b1 J"
b1 n"
b100 E
b100 I"
b100 l"
b101 `
b101 u
b101 +"
b101 0"
b101 H"
b101 k"
b10 >
b10 #"
b10 F"
b10 _"
b11 /
b11 w
b11 b"
b11 U
b11 j
b11 :"
b11 Z"
b1000 G
b1000 G"
b1000 \"
b100 K
b100 k
b100 ["
b1000001000000110110011 S
b1000001000000110110011 %"
b1000001000000110110011 h"
b1100 H
b1100 W"
b1100 j"
b1000 L
b1000 X"
b1000 i"
b1100 "
b1100 &
b1100 J
b1100 ("
b1100 ?"
b1100 B"
b1100 e"
1#
#50000
0#
#55000
b11 *
b11 /"
b11 8"
b11 D"
b10100 I
b10100 <"
b10100 A"
b101 .
b101 g
b101 *"
b1100000010000000100011 R
b1100000010000000100011 '"
b1100000010000000100011 g"
b100000 T"
b100 O"
b11 Q"
b11 u"
b100000 n
b11 }
b11 -
b11 f
b11 9"
b10100 F
b10100 ="
b10100 @"
b10100 f"
19
b10000000010 V
b10000000010 &"
b10000000010 N"
0(
b1000 a
b1000 i
b1000 C"
b1010 C
b1010 l
b1010 ;"
b101 !
b101 '
b101 1
b101 ,"
b101 1"
b101 4"
b101 x"
b1 X
b1 {
b1 )"
b10 W
b10 |
b10 ."
b10000 "
b10000 &
b10000 J
b10000 ("
b10000 ?"
b10000 B"
b10000 e"
b1000000001000011000001000110011 S
b1000000001000011000001000110011 %"
b1000000001000011000001000110011 h"
b10000 H
b10000 W"
b10000 j"
b1100 L
b1100 X"
b1100 i"
0]
b11 >
b11 #"
b11 F"
b11 _"
b10 /
b10 w
b10 b"
b1 0
b1 x
b1 a"
b10 U
b10 j
b10 :"
b10 Z"
b1100 G
b1100 G"
b1100 \"
b1000 K
b1000 k
b1000 ["
b10 =
b10 z
b10 J"
b10 n"
b1000 E
b1000 I"
b1000 l"
b11 `
b11 u
b11 +"
b11 0"
b11 H"
b11 k"
b1 <
b1 y
b1 r"
b1 w"
b100 D
b100 5"
b100 q"
b101 _
b101 7"
b101 p"
16
1#
#60000
0#
#65000
b1 T
b1 q
b1 $"
1^
1O
b1000 .
b1000 g
b1000 *"
b11000 I
b11000 <"
b11000 A"
b11 !
b11 '
b11 1
b11 ,"
b11 1"
b11 4"
b11 x"
0(
b1011 a
b1011 i
b1011 C"
b10000001110 C
b10000001110 l
b10000001110 ;"
b0 T"
b10 S"
b0 O"
b11 R"
b0 Q"
b11 v"
b0 u"
b0 n
b10 m
b100011 o
b11 ~
b0 }
09
b0 V
b0 &"
b0 N"
b10001010000011 R
b10001010000011 '"
b10001010000011 g"
b1 W
b1 |
b1 ."
b10 X
b10 {
b10 )"
b11000 F
b11000 ="
b11000 @"
b11000 f"
b10 <
b10 y
b10 r"
b10 w"
b1000 D
b1000 5"
b1000 q"
b11 _
b11 7"
b11 p"
b11 =
b11 z
b11 J"
b11 n"
b1100 E
b1100 I"
b1100 l"
b11 )
b11 t
b11 L"
b1000 `
b1000 u
b1000 +"
b1000 0"
b1000 H"
b1000 k"
b100000 d"
b100 >
b100 #"
b100 F"
b100 _"
b11 0
b11 x
b11 a"
b10000000010 U
b10000000010 j
b10000000010 :"
b10000000010 Z"
b10000 G
b10000 G"
b10000 \"
b1100 K
b1100 k
b1100 ["
b1100000010000000100011 S
b1100000010000000100011 %"
b1100000010000000100011 h"
b10100 H
b10100 W"
b10100 j"
b10000 L
b10000 X"
b10000 i"
b10100 "
b10100 &
b10100 J
b10100 ("
b10100 ?"
b10100 B"
b10100 e"
1#
#70000
0#
#75000
b1 5
b1 r
b1 P"
19
b11100 I
b11100 <"
b11100 A"
b1000 *
b1000 /"
b1000 8"
b1000 D"
b0 .
b0 g
b0 *"
b11111111111100001000000010010011 R
b11111111111100001000000010010011 '"
b11111111111100001000000010010011 g"
b101 O"
b0 R"
b0 v"
b11 o
b0 ~
b0 -
b0 f
b0 9"
b11100 F
b11100 ="
b11100 @"
b11100 f"
b0 T
b0 q
b0 $"
1^
0O
b0 V
b0 &"
b0 N"
1(
b0 a
b0 i
b0 C"
b10000 C
b10000 l
b10000 ;"
b1 W
b1 |
b1 ."
b0 X
b0 {
b0 )"
b1000 !
b1000 '
b1000 1
b1000 ,"
b1000 1"
b1000 4"
b1000 x"
b11000 "
b11000 &
b11000 J
b11000 ("
b11000 ?"
b11000 B"
b11000 e"
b10001010000011 S
b10001010000011 %"
b10001010000011 h"
b11000 H
b11000 W"
b11000 j"
b10100 L
b10100 X"
b10100 i"
1]
1N
08
b0 d"
b10 c"
b0 >
b0 #"
b0 F"
b0 _"
b11 /
b11 w
b11 b"
b0 0
b0 x
b0 a"
b0 U
b0 j
b0 :"
b0 Z"
b10100 G
b10100 G"
b10100 \"
b10000 K
b10000 k
b10000 ["
b100 =
b100 z
b100 J"
b100 n"
b10000 E
b10000 I"
b10000 l"
b1011 `
b1011 u
b1011 +"
b1011 0"
b1011 H"
b1011 k"
b11 <
b11 y
b11 r"
b11 w"
b1100 D
b1100 5"
b1100 q"
b1000 _
b1000 7"
b1000 p"
1#
#80000
0#
#85000
0Y
0+
0,
b101 B
b101 V"
b101 z"
b0 *
b0 /"
b0 8"
b0 D"
b100000 I
b100000 <"
b100000 A"
b1011 !
b1011 '
b1011 1
b1011 ,"
b1011 1"
b1011 4"
b1011 x"
0!"
b10100 C
b10100 l
b10100 ;"
b1111111 T"
b0 S"
b1 O"
b11111 R"
b1 Q"
b11111 v"
b1 u"
b1111111 n
b0 m
b10011 o
b11111 ~
b1 }
1^
b0 5
b0 r
b0 P"
19
b11111111111111111111111111111111 V
b11111111111111111111111111111111 &"
b11111111111111111111111111111111 N"
b1000010001100011 R
b1000010001100011 '"
b1000010001100011 g"
b0 W
b0 |
b0 ."
b100000 F
b100000 ="
b100000 @"
b100000 f"
b100 <
b100 y
b100 r"
b100 w"
b10000 D
b10000 5"
b10000 q"
b1011 _
b1011 7"
b1011 p"
1M
07
b0 =
b0 z
b0 J"
b0 n"
b10100 E
b10100 I"
b10100 l"
b1000 )
b1000 t
b1000 L"
b0 `
b0 u
b0 +"
b0 0"
b0 H"
b0 k"
0N
b1 4
b1 ""
b1 E"
b1 `"
18
b101 >
b101 #"
b101 F"
b101 _"
b0 /
b0 w
b0 b"
b11000 G
b11000 G"
b11000 \"
b10100 K
b10100 k
b10100 ["
b11111111111100001000000010010011 S
b11111111111100001000000010010011 %"
b11111111111100001000000010010011 h"
b11100 H
b11100 W"
b11100 j"
b11000 L
b11000 X"
b11000 i"
b11100 "
b11100 &
b11100 J
b11100 ("
b11100 ?"
b11100 B"
b11100 e"
1#
#90000
0#
#95000
b10 T
b10 q
b10 $"
1\
0(
b100 a
b100 i
b100 C"
b100100 I
b100100 <"
b100100 A"
b11111111100111111111000001101111 R
b11111111100111111111000001101111 '"
b11111111100111111111000001101111 g"
b0 T"
b1000 O"
b0 R"
b0 v"
b0 n
b1100011 o
b0 ~
b11111111111111111111111111111111 -
b11111111111111111111111111111111 f
b11111111111111111111111111111111 9"
b101 .
b101 g
b101 *"
b100100 F
b100100 ="
b100100 @"
b100100 f"
0^
09
b1000 V
b1000 &"
b1000 N"
b10111 C
b10111 l
b10111 ;"
b0 !
b0 '
b0 1
b0 ,"
b0 1"
b0 4"
b0 x"
b1000 ;
b1000 s
b1000 m"
b100000 "
b100000 &
b100000 J
b100000 ("
b100000 ?"
b100000 B"
b100000 e"
b1000010001100011 S
b1000010001100011 %"
b1000010001100011 h"
b100000 H
b100000 W"
b100000 j"
b11100 L
b11100 X"
b11100 i"
b0 4
b0 ""
b0 E"
b0 `"
b1111111 d"
b0 c"
b1 >
b1 #"
b1 F"
b1 _"
b11111 /
b11111 w
b11111 b"
b1 0
b1 x
b1 a"
b11111111111111111111111111111111 U
b11111111111111111111111111111111 j
b11111111111111111111111111111111 :"
b11111111111111111111111111111111 Z"
b101 A
b101 -"
b101 ]"
b11100 G
b11100 G"
b11100 \"
b11000 K
b11000 k
b11000 ["
0M
b1 3
b1 K"
b1 o"
17
b101 =
b101 z
b101 J"
b101 n"
b11000 E
b11000 I"
b11000 l"
b0 )
b0 t
b0 L"
b0 <
b0 y
b0 r"
b0 w"
b10100 D
b10100 5"
b10100 q"
b0 _
b0 7"
b0 p"
06
1#
#100000
0#
#105000
0Y
0Z
0%
b1000 !
b1000 '
b1000 1
b1000 ,"
b1000 1"
b1000 4"
b1000 x"
b0 B
b0 V"
b0 z"
b10 5
b10 r
b10 P"
1Q
19
b100 .
b100 g
b100 *"
b101000 I
b101000 <"
b101000 A"
b0 ;
b0 s
b0 m"
b0 -
b0 f
b0 9"
0(
b100 a
b100 i
b100 C"
b100100 C
b100100 l
b100100 ;"
b1111111 T"
b111 S"
b0 O"
b11001 R"
b11111 Q"
b11001 v"
b11111 u"
b1111111 n
b111 m
b1101111 o
b11001 ~
b11111 }
b11 T
b11 q
b11 $"
0\
b11111111111111111111111111111000 V
b11111111111111111111111111111000 &"
b11111111111111111111111111111000 N"
b1101111 R
b1101111 '"
b1101111 g"
b10 X
b10 {
b10 )"
b101000 F
b101000 ="
b101000 @"
b101000 f"
b101 <
b101 y
b101 r"
b101 w"
b11000 D
b11000 5"
b11000 q"
b1000 :
b1000 6"
b1000 s"
b1 2
b1 3"
b1 t"
16
b0 3
b0 K"
b0 o"
b1 =
b1 z
b1 J"
b1 n"
b11100 E
b11100 I"
b11100 l"
b100 `
b100 u
b100 +"
b100 0"
b100 H"
b100 k"
0]
1[
08
b0 d"
b1000 >
b1000 #"
b1000 F"
b1000 _"
b0 /
b0 w
b0 b"
b1000 U
b1000 j
b1000 :"
b1000 Z"
b100000 G
b100000 G"
b100000 \"
b11100 K
b11100 k
b11100 ["
b11111111100111111111000001101111 S
b11111111100111111111000001101111 %"
b11111111100111111111000001101111 h"
b100100 H
b100100 W"
b100100 j"
b100000 L
b100000 X"
b100000 i"
b100100 "
b100100 &
b100100 J
b100100 ("
b100100 ?"
b100100 B"
b100100 e"
1#
#110000
0#
#115000
1Y
b11000 I
b11000 <"
b11000 A"
b0 .
b0 g
b0 *"
b0 R
b0 '"
b0 g"
b0 T"
b0 S"
b0 R"
b0 Q"
b0 v"
b0 u"
b0 n
b0 m
b0 ~
b0 }
1Z
1%
b101100 F
b101100 ="
b101100 @"
b101100 f"
b11 T
b11 q
b11 $"
1Q
b10 5
b10 r
b10 P"
19
b0 V
b0 &"
b0 N"
1(
b0 a
b0 i
b0 C"
b11000 C
b11000 l
b11000 ;"
b0 X
b0 {
b0 )"
b100 !
b100 '
b100 1
b100 ,"
b100 1"
b100 4"
b100 x"
b101000 "
b101000 &
b101000 J
b101000 ("
b101000 ?"
b101000 B"
b101000 e"
b1101111 S
b1101111 %"
b1101111 h"
b101000 H
b101000 W"
b101000 j"
b100100 L
b100100 X"
b100100 i"
0[
1P
b10 4
b10 ""
b10 E"
b10 `"
18
b1111111 d"
b111 c"
b0 >
b0 #"
b0 F"
b0 _"
b11001 /
b11001 w
b11001 b"
b11111 0
b11111 x
b11111 a"
b11111111111111111111111111111000 U
b11111111111111111111111111111000 j
b11111111111111111111111111111000 :"
b11111111111111111111111111111000 Z"
b0 A
b0 -"
b0 ]"
b100100 G
b100100 G"
b100100 \"
b100000 K
b100000 k
b100000 ["
07
b1000 =
b1000 z
b1000 J"
b1000 n"
b100000 E
b100000 I"
b100000 l"
b1 <
b1 y
b1 r"
b1 w"
b11100 D
b11100 5"
b11100 q"
b0 :
b0 6"
b0 s"
b100 _
b100 7"
b100 p"
b0 2
b0 3"
b0 t"
1#
#120000
0#
#125000
0Y
b11100 I
b11100 <"
b11100 A"
b1000 ;
b1000 s
b1000 m"
0Z
0%
b0 C
b0 l
b0 ;"
b0 o
b0 T
b0 q
b0 $"
0Q
b0 5
b0 r
b0 P"
09
b11111111111100001000000010010011 R
b11111111111100001000000010010011 '"
b11111111111100001000000010010011 g"
b11100 F
b11100 ="
b11100 @"
b11100 f"
b1000 <
b1000 y
b1000 r"
b1000 w"
b100000 D
b100000 5"
b100000 q"
06
b10 3
b10 K"
b10 o"
17
b0 =
b0 z
b0 J"
b0 n"
b100100 E
b100100 I"
b100100 l"
b0 `
b0 u
b0 +"
b0 0"
b0 H"
b0 k"
0P
b0 4
b0 ""
b0 E"
b0 `"
08
b0 d"
b0 c"
b0 /
b0 w
b0 b"
b0 0
b0 x
b0 a"
b0 U
b0 j
b0 :"
b0 Z"
b0 G
b0 G"
b0 \"
b0 K
b0 k
b0 ["
b0 S
b0 %"
b0 h"
b0 H
b0 W"
b0 j"
b0 L
b0 X"
b0 i"
b11000 "
b11000 &
b11000 J
b11000 ("
b11000 ?"
b11000 B"
b11000 e"
1#
#130000
0#
#135000
b100 B
b100 V"
b100 z"
1^
19
b100000 I
b100000 <"
b100000 A"
b1000010001100011 R
b1000010001100011 '"
b1000010001100011 g"
b1111111 T"
b1 O"
b11111 R"
b1 Q"
b11111 v"
b1 u"
b1111111 n
b10011 o
b11111 ~
b1 }
b100000 F
b100000 ="
b100000 @"
b100000 f"
b11111111111111111111111111111111 V
b11111111111111111111111111111111 &"
b11111111111111111111111111111111 N"
b100100 !
b100100 '
b100100 1
b100100 ,"
b100100 1"
b100100 4"
b100100 x"
b11100 "
b11100 &
b11100 J
b11100 ("
b11100 ?"
b11100 B"
b11100 e"
b11111111111100001000000010010011 S
b11111111111100001000000010010011 %"
b11111111111100001000000010010011 h"
b11100 H
b11100 W"
b11100 j"
b11000 L
b11000 X"
b11000 i"
b0 3
b0 K"
b0 o"
07
b0 E
b0 I"
b0 l"
b0 <
b0 y
b0 r"
b0 w"
b100100 D
b100100 5"
b100100 q"
b1000 :
b1000 6"
b1000 s"
b0 _
b0 7"
b0 p"
b10 2
b10 3"
b10 t"
16
1#
#140000
0#
#145000
0(
b11 a
b11 i
b11 C"
b10 T
b10 q
b10 $"
1\
b100100 I
b100100 <"
b100100 A"
b0 !
b0 '
b0 1
b0 ,"
b0 1"
b0 4"
b0 x"
b11111111111111111111111111111111 -
b11111111111111111111111111111111 f
b11111111111111111111111111111111 9"
b100 .
b100 g
b100 *"
b10111 C
b10111 l
b10111 ;"
b0 T"
b1000 O"
b0 R"
b0 v"
b0 n
b1100011 o
b0 ~
0^
09
b1000 V
b1000 &"
b1000 N"
b11111111100111111111000001101111 R
b11111111100111111111000001101111 '"
b11111111100111111111000001101111 g"
b100100 F
b100100 ="
b100100 @"
b100100 f"
b0 D
b0 5"
b0 q"
b0 2
b0 3"
b0 t"
06
1]
18
b1111111 d"
b1 >
b1 #"
b1 F"
b1 _"
b11111 /
b11111 w
b11111 b"
b1 0
b1 x
b1 a"
b11111111111111111111111111111111 U
b11111111111111111111111111111111 j
b11111111111111111111111111111111 :"
b11111111111111111111111111111111 Z"
b100 A
b100 -"
b100 ]"
b11100 G
b11100 G"
b11100 \"
b11000 K
b11000 k
b11000 ["
b1000010001100011 S
b1000010001100011 %"
b1000010001100011 h"
b100000 H
b100000 W"
b100000 j"
b11100 L
b11100 X"
b11100 i"
b100000 "
b100000 &
b100000 J
b100000 ("
b100000 ?"
b100000 B"
b100000 e"
1#
#150000
0#
