tb_jerarquia_simple.vcd
$date
	Wed Dec 10 14:36:09 2025
$end
$version
	Icarus Verilog
$end
$timescale
	1ps
$end
$scope module tb_jerarquia_simple $end
$var wire 1 ! cpu_ready $end
$var wire 32 " cpu_rdata [31:0] $end
$var wire 1 # cpu_hit $end
$var reg 1 $ clk $end
$var reg 16 % cpu_addr [15:0] $end
$var reg 1 & cpu_req $end
$var reg 32 ' cpu_wdata [31:0] $end
$var reg 1 ( cpu_we $end
$var reg 1 ) rst $end
$scope module dut $end
$var wire 1 $ clk $end
$var wire 16 * cpu_addr [15:0] $end
$var wire 1 & cpu_req $end
$var wire 32 + cpu_wdata [31:0] $end
$var wire 1 ( cpu_we $end
$var wire 1 ) rst $end
$var wire 3 , word_cpu [2:0] $end
$var wire 1 - valid_stored $end
$var wire 6 . tag_stored [5:0] $end
$var wire 6 / tag_cpu [5:0] $end
$var wire 1 0 mem_ready $end
$var wire 32 1 mem_rdata [31:0] $end
$var wire 1 2 mem_done $end
$var wire 5 3 index_cpu [4:0] $end
$var wire 32 4 cache_rdata [31:0] $end
$var reg 32 5 c_wdata_mux [31:0] $end
$var reg 1 6 c_we_data $end
$var reg 1 7 c_we_tag $end
$var reg 3 8 c_word_mux [2:0] $end
$var reg 1 # cpu_hit $end
$var reg 32 9 cpu_rdata [31:0] $end
$var reg 1 ! cpu_ready $end
$var reg 1 : hit_signal $end
$var reg 16 ; mem_addr_reg [15:0] $end
$var reg 1 < mem_req_reg $end
$var reg 32 = mem_wdata_reg [31:0] $end
$var reg 1 > mem_we_reg $end
$var reg 3 ? nxt_ref_cnt [2:0] $end
$var reg 3 @ nxt_state [2:0] $end
$var reg 3 A ref_cnt [2:0] $end
$var reg 3 B state [2:0] $end
$scope module cache_mem $end
$var wire 1 $ clk $end
$var wire 32 C data_in [31:0] $end
$var wire 32 D data_out [31:0] $end
$var wire 1 ) rst $end
$var wire 6 E tag_out [5:0] $end
$var wire 1 - valid_out $end
$var wire 1 6 we_data $end
$var wire 1 7 we_tag $end
$var wire 3 F word_sel [2:0] $end
$var wire 6 G tag_in [5:0] $end
$var wire 5 H index [4:0] $end
$var integer 32 I i [31:0] $end
$var integer 32 J w [31:0] $end
$upscope $end
$scope module decoder_inst $end
$var wire 16 K addr [15:0] $end
$var wire 3 L word_sel [2:0] $end
$var wire 6 M tag [5:0] $end
$var wire 5 N index [4:0] $end
$upscope $end
$scope module main_mem $end
$var wire 16 O addr [15:0] $end
$var wire 1 $ clk $end
$var wire 1 < req $end
$var wire 1 ) rst $end
$var wire 32 P wdata [31:0] $end
$var wire 1 > we $end
$var reg 1 2 done $end
$var reg 32 Q rdata [31:0] $end
$var reg 1 0 ready $end
$var reg 16 R saved_addr [15:0] $end
$var reg 32 S saved_wdata [31:0] $end
$var reg 1 T saved_we $end
$var integer 32 U i [31:0] $end
$var integer 32 V wait_cnt [31:0] $end
$upscope $end
$upscope $end
$scope begin $unm_blk_4 $end
$var reg 1 W hit_status $end
$var reg 32 X read_data [31:0] $end
$upscope $end
$scope task request_cpu $end
$var reg 16 Y addr [15:0] $end
$var reg 1 Z hit $end
$var reg 32 [ rdata [31:0] $end
$var reg 32 \ wdata [31:0] $end
$var reg 1 ] we $end
$upscope $end
$scope task reset_cpu $end
$upscope $end
$scope task wait_cycles $end
$var integer 32 ^ cycles [31:0] $end
$upscope $end
$upscope $end
$enddefinitions $end
#0
$dumpvars
bx ^
x]
bx \
bx [
xZ
bx Y
bx X
xW
b0 V
b10000000000000000 U
0T
b0 S
b0 R
b0 Q
b0 P
b0 O
b0 N
b0 M
b0 L
b0 K
b1000 J
b100000 I
b0 H
b0 G
b0 F
b0 E
b0 D
b0 C
b0 B
b0 A
b0 @
b0 ?
0>
b0 =
0<
b0 ;
x:
b0 9
b0 8
07
06
b0 5
b0 4
b0 3
02
b0 1
10
b0 /
b0 .
0-
b0 ,
b0 +
b0 *
1)
0(
b0 '
0&
b0 %
0$
0#
b0 "
0!
$end
#5000
b1000 J
b100000 I
1$
#10000
0$
#15000
1<
b1 B
b10 8
b10 F
b10 ,
b10 L
b10 @
1$
0&
b1000 %
b1000 *
b1000 K
0]
b0 \
b1000 Y
0)
#20000
0$
#25000
0<
b10 B
b1000 V
00
1$
#30000
0$
#35000
b111 V
1$
#40000
0$
#45000
b110 V
1$
#50000
0$
#55000
b101 V
1$
#60000
0$
#65000
b100 V
1$
#70000
0$
#75000
b11 V
1$
#80000
0$
#85000
b10 V
1$
#90000
0$
#95000
b1 V
1$
#100000
0$
#105000
b0 V
1$
#110000
0$
#115000
b1 ;
b1 O
1<
b1 ?
b0 8
b0 F
16
12
10
1$
#120000
0$
#125000
b10 8
b10 F
06
b0 ;
b0 O
0<
b1 A
b1 R
b1000 V
00
02
1$
#130000
0$
#135000
b111 V
1$
#140000
0$
#145000
b110 V
1$
#150000
0$
#155000
b101 V
1$
#160000
0$
#165000
b100 V
1$
#170000
0$
#175000
b11 V
1$
#180000
0$
#185000
b10 V
1$
#190000
0$
#195000
b1 V
1$
#200000
0$
#205000
b0 V
1$
#210000
0$
#215000
b10 ;
b10 O
1<
b10 ?
b1 8
b1 F
b1 5
b1 C
16
b1 1
b1 Q
12
10
1$
#220000
0$
#225000
b10 8
b10 F
b0 5
b0 C
06
b0 ;
b0 O
0<
b1 "
b1 9
b10 A
b10 R
b1000 V
00
02
b0 4
b0 D
1$
#230000
0$
#235000
b111 V
1$
#240000
0$
#245000
b110 V
1$
#250000
0$
#255000
b101 V
1$
#260000
0$
#265000
b100 V
1$
#270000
0$
#275000
b11 V
1$
#280000
0$
#285000
b10 V
1$
#290000
0$
#295000
b1 V
1$
#300000
0$
#305000
b0 V
1$
#310000
0$
#315000
b11 ;
b11 O
1<
b11 ?
b10 5
b10 C
16
b0 "
b0 9
b10 1
b10 Q
12
10
1$
#320000
0$
#325000
b0 5
b0 C
06
b0 ;
b0 O
0<
b10 "
b10 9
b11 A
b11 R
b1000 V
00
02
b10 4
b10 D
1$
#330000
0$
#335000
b111 V
1$
#340000
0$
#345000
b110 V
1$
#350000
0$
#355000
b101 V
1$
#360000
0$
#365000
b100 V
1$
#370000
0$
#375000
b11 V
1$
#380000
0$
#385000
b10 V
1$
#390000
0$
#395000
b1 V
1$
#400000
0$
#405000
b0 V
1$
#410000
0$
#415000
b100 ;
b100 O
1<
b100 ?
b0 4
b0 D
b11 8
b11 F
b11 5
b11 C
16
b11 1
b11 Q
12
10
1$
#420000
0$
#425000
b10 8
b10 F
b0 5
b0 C
06
b0 ;
b0 O
0<
b11 "
b11 9
b100 A
b100 R
b1000 V
00
02
b10 4
b10 D
1$
#430000
0$
#435000
b111 V
1$
#440000
0$
#445000
b110 V
1$
#450000
0$
#455000
b101 V
1$
#460000
0$
#465000
b100 V
1$
#470000
0$
#475000
b11 V
1$
#480000
0$
#485000
b10 V
1$
#490000
0$
#495000
b1 V
1$
#500000
0$
#505000
b0 V
1$
#510000
0$
#515000
b101 ;
b101 O
1<
b101 ?
b0 4
b0 D
b100 8
b100 F
b100 5
b100 C
16
b10 "
b10 9
b100 1
b100 Q
12
10
1$
#520000
0$
#525000
b10 8
b10 F
b0 5
b0 C
06
b0 ;
b0 O
0<
b100 "
b100 9
b101 A
b101 R
b1000 V
00
02
b10 4
b10 D
1$
#530000
0$
#535000
b111 V
1$
#540000
0$
#545000
b110 V
1$
#550000
0$
#555000
b101 V
1$
#560000
0$
#565000
b100 V
1$
#570000
0$
#575000
b11 V
1$
#580000
0$
#585000
b10 V
1$
#590000
0$
#595000
b1 V
1$
#600000
0$
#605000
b0 V
1$
#610000
0$
#615000
b110 ;
b110 O
1<
b110 ?
b0 4
b0 D
b101 8
b101 F
b101 5
b101 C
16
b10 "
b10 9
b101 1
b101 Q
12
10
1$
#620000
0$
#625000
b10 8
b10 F
b0 5
b0 C
06
b0 ;
b0 O
0<
b101 "
b101 9
b110 A
b110 R
b1000 V
00
02
b10 4
b10 D
1$
#630000
0$
#635000
b111 V
1$
#640000
0$
#645000
b110 V
1$
#650000
0$
#655000
b101 V
1$
#660000
0$
#665000
b100 V
1$
#670000
0$
#675000
b11 V
1$
#680000
0$
#685000
b10 V
1$
#690000
0$
#695000
b1 V
1$
#700000
0$
#705000
b0 V
1$
#710000
0$
#715000
b111 ;
b111 O
1<
b111 ?
b0 4
b0 D
b110 8
b110 F
b110 5
b110 C
16
b10 "
b10 9
b110 1
b110 Q
12
10
1$
#720000
0$
#725000
b10 8
b10 F
b0 5
b0 C
06
b0 ;
b0 O
0<
b110 "
b110 9
b111 A
b111 R
b1000 V
00
02
b10 4
b10 D
1$
#730000
0$
#735000
b111 V
1$
#740000
0$
#745000
b110 V
1$
#750000
0$
#755000
b101 V
1$
#760000
0$
#765000
b100 V
1$
#770000
0$
#775000
b11 V
1$
#780000
0$
#785000
b10 V
1$
#790000
0$
#795000
b1 V
1$
#800000
0$
#805000
b0 V
1$
#810000
0$
#815000
b0 @
1!
17
b0 4
b0 D
b111 8
b111 F
b111 5
b111 C
16
b10 "
b10 9
b111 1
b111 Q
12
10
1$
#820000
0$
#825000
b10 8
b10 F
b0 5
b0 C
07
06
b111 "
b111 9
0!
b0 B
02
b10 4
b10 D
1-
b10 ^
0W
b10 X
0Z
b10 [
1$
#830000
0$
#835000
1$
#840000
0$
#845000
b1 @
b10 "
b10 9
1&
1$
#850000
0$
#855000
b0 ?
1<
b1 B
b10 @
0&
1$
#860000
0$
#865000
0<
b0 A
b10 B
b0 R
b1000 V
00
1$
#870000
0$
#875000
b111 V
1$
#880000
0$
#885000
b110 V
1$
#890000
0$
#895000
b101 V
1$
#900000
0$
#905000
b100 V
1$
#910000
0$
#915000
b11 V
1$
#920000
0$
#925000
b10 V
1$
#930000
0$
#935000
b1 V
1$
#940000
0$
#945000
b0 V
1$
#950000
0$
#955000
b1 ;
b1 O
1<
b1 ?
b0 4
b0 D
b0 8
b0 F
16
b0 1
b0 Q
12
10
1$
#960000
0$
#965000
b10 4
b10 D
b10 8
b10 F
06
b0 ;
b0 O
0<
b0 "
b0 9
b1 A
b1 R
b1000 V
00
02
1$
#970000
0$
#975000
b111 V
1$
#980000
0$
#985000
b110 V
1$
#990000
0$
#995000
b101 V
1$
#1000000
0$
#1005000
b100 V
1$
#1010000
0$
#1015000
b11 V
1$
#1020000
0$
#1025000
b10 V
1$
#1030000
0$
#1035000
b1 V
1$
#1040000
0$
#1045000
b0 V
1$
#1050000
0$
#1055000
b10 ;
b10 O
1<
b10 ?
b1 4
b1 D
b1 8
b1 F
b1 5
b1 C
16
b10 "
b10 9
b1 1
b1 Q
12
10
1$
#1060000
0$
#1065000
b10 4
b10 D
b10 8
b10 F
b0 5
b0 C
06
b0 ;
b0 O
0<
b1 "
b1 9
b10 A
b10 R
b1000 V
00
02
1$
#1070000
0$
#1075000
b111 V
1$
#1080000
0$
#1085000
b110 V
1$
#1090000
0$
#1095000
b101 V
1$
#1100000
0$
#1105000
b100 V
1$
#1110000
0$
#1115000
b11 V
1$
#1120000
0$
#1125000
b10 V
1$
#1130000
0$
#1135000
b1 V
1$
#1140000
0$
#1145000
b0 V
1$
#1150000
0$
#1155000
b11 ;
b11 O
1<
b11 ?
b10 5
b10 C
16
b10 "
b10 9
b10 1
b10 Q
12
10
1$
#1160000
0$
#1165000
b0 5
b0 C
06
b0 ;
b0 O
0<
b11 A
b11 R
b1000 V
00
02
1$
#1170000
0$
#1175000
b111 V
1$
#1180000
0$
#1185000
b110 V
1$
#1190000
0$
#1195000
b101 V
1$
#1200000
0$
#1205000
b100 V
1$
#1210000
0$
#1215000
b11 V
1$
#1220000
0$
#1225000
b10 V
1$
#1230000
0$
#1235000
b1 V
1$
#1240000
0$
#1245000
b0 V
1$
#1250000
0$
#1255000
b100 ;
b100 O
1<
b100 ?
b11 4
b11 D
b11 8
b11 F
b11 5
b11 C
16
b11 1
b11 Q
12
10
1$
#1260000
0$
#1265000
b10 4
b10 D
b10 8
b10 F
b0 5
b0 C
06
b0 ;
b0 O
0<
b11 "
b11 9
b100 A
b100 R
b1000 V
00
02
1$
#1270000
0$
#1275000
b111 V
1$
#1280000
0$
#1285000
b110 V
1$
#1290000
0$
#1295000
b101 V
1$
#1300000
0$
#1305000
b100 V
1$
#1310000
0$
#1315000
b11 V
1$
#1320000
0$
#1325000
b10 V
1$
#1330000
0$
#1335000
b1 V
1$
#1340000
0$
#1345000
b0 V
1$
#1350000
0$
#1355000
b101 ;
b101 O
1<
b101 ?
b100 4
b100 D
b100 8
b100 F
b100 5
b100 C
16
b10 "
b10 9
b100 1
b100 Q
12
10
1$
#1360000
0$
#1365000
b10 4
b10 D
b10 8
b10 F
b0 5
b0 C
06
b0 ;
b0 O
0<
b100 "
b100 9
b101 A
b101 R
b1000 V
00
02
1$
#1370000
0$
#1375000
b111 V
1$
#1380000
0$
#1385000
b110 V
1$
#1390000
0$
#1395000
b101 V
1$
#1400000
0$
#1405000
b100 V
1$
#1410000
0$
#1415000
b11 V
1$
#1420000
0$
#1425000
b10 V
1$
#1430000
0$
#1435000
b1 V
1$
#1440000
0$
#1445000
b0 V
1$
#1450000
0$
#1455000
b110 ;
b110 O
1<
b110 ?
b101 4
b101 D
b101 8
b101 F
b101 5
b101 C
16
b10 "
b10 9
b101 1
b101 Q
12
10
1$
#1460000
0$
#1465000
b10 4
b10 D
b10 8
b10 F
b0 5
b0 C
06
b0 ;
b0 O
0<
b101 "
b101 9
b110 A
b110 R
b1000 V
00
02
1$
#1470000
0$
#1475000
b111 V
1$
#1480000
0$
#1485000
b110 V
1$
#1490000
0$
#1495000
b101 V
1$
#1500000
0$
#1505000
b100 V
1$
#1510000
0$
#1515000
b11 V
1$
#1520000
0$
#1525000
b10 V
1$
#1530000
0$
#1535000
b1 V
1$
#1540000
0$
#1545000
b0 V
1$
#1550000
0$
#1555000
b111 ;
b111 O
1<
b111 ?
b110 4
b110 D
b110 8
b110 F
b110 5
b110 C
16
b10 "
b10 9
b110 1
b110 Q
12
10
1$
#1560000
0$
#1565000
b10 4
b10 D
b10 8
b10 F
b0 5
b0 C
06
b0 ;
b0 O
0<
b110 "
b110 9
b111 A
b111 R
b1000 V
00
02
1$
#1570000
0$
#1575000
b111 V
1$
#1580000
0$
#1585000
b110 V
1$
#1590000
0$
#1595000
b101 V
1$
#1600000
0$
#1605000
b100 V
1$
#1610000
0$
#1615000
b11 V
1$
#1620000
0$
#1625000
b10 V
1$
#1630000
0$
#1635000
b1 V
1$
#1640000
0$
#1645000
b0 V
1$
#1650000
0$
#1655000
b0 @
1!
17
b111 4
b111 D
b111 8
b111 F
b111 5
b111 C
16
b10 "
b10 9
b111 1
b111 Q
12
10
1$
#1660000
0$
#1665000
b10 4
b10 D
b10 8
b10 F
b0 5
b0 C
07
06
b111 "
b111 9
0!
b0 B
02
1$
#1670000
0$
#1675000
1$
#1680000
0$
#1685000
b1 @
b10101010101110111100110011011101 5
b10101010101110111100110011011101 C
b10101010101110111100110011011101 =
b10101010101110111100110011011101 P
b10 "
b10 9
1&
1(
b10101010101110111100110011011101 '
b10101010101110111100110011011101 +
1]
b10101010101110111100110011011101 \
1$
#1690000
0$
#1695000
b1000 ;
b1000 O
1>
1<
b1 B
b101 @
0&
1$
#1700000
0$
#1705000
b0 ;
b0 O
0>
0<
b101 B
1T
b10101010101110111100110011011101 S
b1000 R
b1000 V
00
1$
#1710000
0$
#1715000
b111 V
1$
#1720000
0$
#1725000
b110 V
1$
#1730000
0$
#1735000
b101 V
1$
#1740000
0$
#1745000
b100 V
1$
#1750000
0$
#1755000
b11 V
1$
#1760000
0$
#1765000
b10 V
1$
#1770000
0$
#1775000
b1 V
1$
#1780000
0$
#1785000
b0 V
1$
#1790000
0$
#1795000
b0 @
1!
b1000 1
b1000 Q
12
10
1$
#1800000
0$
#1805000
0!
b0 B
02
1$
#1810000
0$
#1815000
1$
#1820000
0$
#1825000
b1 @
b0 5
b0 C
b0 =
b0 P
1&
0(
b0 '
b0 +
0]
b0 \
1$
#1830000
0$
#1835000
b0 ?
1<
b1 B
b10 @
0&
1$
#1840000
0$
#1845000
0<
b0 A
b10 B
0T
b0 S
b0 R
b1000 V
00
1$
#1850000
0$
#1855000
b111 V
1$
#1860000
0$
#1865000
b110 V
1$
#1870000
0$
#1875000
b101 V
1$
#1880000
0$
#1885000
b100 V
1$
#1890000
0$
#1895000
b11 V
1$
#1900000
0$
#1905000
b10 V
1$
#1910000
0$
#1915000
b1 V
1$
#1920000
0$
#1925000
b0 V
1$
#1930000
0$
#1935000
b1 ;
b1 O
1<
b1 ?
b0 4
b0 D
b0 8
b0 F
16
b0 1
b0 Q
12
10
1$
#1940000
0$
#1945000
b10 4
b10 D
b10 8
b10 F
06
b0 ;
b0 O
0<
b0 "
b0 9
b1 A
b1 R
b1000 V
00
02
1$
#1950000
0$
#1955000
b111 V
1$
#1960000
0$
#1965000
b110 V
1$
#1970000
0$
#1975000
b101 V
1$
#1980000
0$
#1985000
b100 V
1$
#1990000
0$
#1995000
b11 V
1$
#2000000
0$
#2005000
b10 V
1$
#2010000
0$
#2015000
b1 V
1$
#2020000
0$
#2025000
b0 V
1$
#2030000
0$
#2035000
b10 ;
b10 O
1<
b10 ?
b1 4
b1 D
b1 8
b1 F
b1 5
b1 C
16
b10 "
b10 9
b1 1
b1 Q
12
10
1$
#2040000
0$
#2045000
b10 4
b10 D
b10 8
b10 F
b0 5
b0 C
06
b0 ;
b0 O
0<
b1 "
b1 9
b10 A
b10 R
b1000 V
00
02
1$
#2050000
0$
#2055000
b111 V
1$
#2060000
0$
#2065000
b110 V
1$
#2070000
0$
#2075000
b101 V
1$
#2080000
0$
#2085000
b100 V
1$
#2090000
0$
#2095000
b11 V
1$
#2100000
0$
#2105000
b10 V
1$
#2110000
0$
#2115000
b1 V
1$
#2120000
0$
#2125000
b0 V
1$
#2130000
0$
#2135000
b11 ;
b11 O
1<
b11 ?
b10 5
b10 C
16
b10 "
b10 9
b10 1
b10 Q
12
10
1$
#2140000
0$
#2145000
b0 5
b0 C
06
b0 ;
b0 O
0<
b11 A
b11 R
b1000 V
00
02
1$
#2150000
0$
#2155000
b111 V
1$
#2160000
0$
#2165000
b110 V
1$
#2170000
0$
#2175000
b101 V
1$
#2180000
0$
#2185000
b100 V
1$
#2190000
0$
#2195000
b11 V
1$
#2200000
0$
#2205000
b10 V
1$
#2210000
0$
#2215000
b1 V
1$
#2220000
0$
#2225000
b0 V
1$
#2230000
0$
#2235000
b100 ;
b100 O
1<
b100 ?
b11 4
b11 D
b11 8
b11 F
b11 5
b11 C
16
b11 1
b11 Q
12
10
1$
#2240000
0$
#2245000
b10 4
b10 D
b10 8
b10 F
b0 5
b0 C
06
b0 ;
b0 O
0<
b11 "
b11 9
b100 A
b100 R
b1000 V
00
02
1$
#2250000
0$
#2255000
b111 V
1$
#2260000
0$
#2265000
b110 V
1$
#2270000
0$
#2275000
b101 V
1$
#2280000
0$
#2285000
b100 V
1$
#2290000
0$
#2295000
b11 V
1$
#2300000
0$
#2305000
b10 V
1$
#2310000
0$
#2315000
b1 V
1$
#2320000
0$
#2325000
b0 V
1$
#2330000
0$
#2335000
b101 ;
b101 O
1<
b101 ?
b100 4
b100 D
b100 8
b100 F
b100 5
b100 C
16
b10 "
b10 9
b100 1
b100 Q
12
10
1$
#2340000
0$
#2345000
b10 4
b10 D
b10 8
b10 F
b0 5
b0 C
06
b0 ;
b0 O
0<
b100 "
b100 9
b101 A
b101 R
b1000 V
00
02
1$
#2350000
0$
#2355000
b111 V
1$
#2360000
0$
#2365000
b110 V
1$
#2370000
0$
#2375000
b101 V
1$
#2380000
0$
#2385000
b100 V
1$
#2390000
0$
#2395000
b11 V
1$
#2400000
0$
#2405000
b10 V
1$
#2410000
0$
#2415000
b1 V
1$
#2420000
0$
#2425000
b0 V
1$
#2430000
0$
#2435000
b110 ;
b110 O
1<
b110 ?
b101 4
b101 D
b101 8
b101 F
b101 5
b101 C
16
b10 "
b10 9
b101 1
b101 Q
12
10
1$
#2440000
0$
#2445000
b10 4
b10 D
b10 8
b10 F
b0 5
b0 C
06
b0 ;
b0 O
0<
b101 "
b101 9
b110 A
b110 R
b1000 V
00
02
1$
#2450000
0$
#2455000
b111 V
1$
#2460000
0$
#2465000
b110 V
1$
#2470000
0$
#2475000
b101 V
1$
#2480000
0$
#2485000
b100 V
1$
#2490000
0$
#2495000
b11 V
1$
#2500000
0$
#2505000
b10 V
1$
#2510000
0$
#2515000
b1 V
1$
#2520000
0$
#2525000
b0 V
1$
#2530000
0$
#2535000
b111 ;
b111 O
1<
b111 ?
b110 4
b110 D
b110 8
b110 F
b110 5
b110 C
16
b10 "
b10 9
b110 1
b110 Q
12
10
1$
#2540000
0$
#2545000
b10 4
b10 D
b10 8
b10 F
b0 5
b0 C
06
b0 ;
b0 O
0<
b110 "
b110 9
b111 A
b111 R
b1000 V
00
02
1$
#2550000
0$
#2555000
b111 V
1$
#2560000
0$
#2565000
b110 V
1$
#2570000
0$
#2575000
b101 V
1$
#2580000
0$
#2585000
b100 V
1$
#2590000
0$
#2595000
b11 V
1$
#2600000
0$
#2605000
b10 V
1$
#2610000
0$
#2615000
b1 V
1$
#2620000
0$
#2625000
b0 V
1$
#2630000
0$
#2635000
b0 @
1!
17
b111 4
b111 D
b111 8
b111 F
b111 5
b111 C
16
b10 "
b10 9
b111 1
b111 Q
12
10
1$
#2640000
0$
#2645000
b10 4
b10 D
b10 8
b10 F
b0 5
b0 C
07
06
b111 "
b111 9
0!
b0 B
02
1$
#2650000
0$
#2655000
1$
#2660000
0$
#2665000
b0 8
b0 F
b0 4
b0 D
0-
b10 3
b10 H
b10 N
b0 ,
b0 L
b1 @
b0 "
b0 9
1&
b1000000 %
b1000000 *
b1000000 K
b1000000 Y
1$
#2670000
0$
#2675000
b0 ?
b1000000 ;
b1000000 O
1<
b1 B
b10 @
0&
1$
#2680000
0$
#2685000
b0 ;
b0 O
0<
b0 A
b10 B
b1000000 R
b1000 V
00
1$
#2690000
0$
#2695000
b111 V
1$
#2700000
0$
#2705000
b110 V
1$
#2710000
0$
#2715000
b101 V
1$
#2720000
0$
#2725000
b100 V
1$
#2730000
0$
#2735000
b11 V
1$
#2740000
0$
#2745000
b10 V
1$
#2750000
0$
#2755000
b1 V
1$
#2760000
0$
#2765000
b0 V
1$
#2770000
0$
#2775000
b1000001 ;
b1000001 O
1<
b1 ?
b1000000 5
b1000000 C
16
b1000000 1
b1000000 Q
12
10
1$
#2780000
0$
#2785000
b0 5
b0 C
06
b0 ;
b0 O
0<
b1000000 "
b1000000 9
b1 A
b1000001 R
b1000 V
00
02
b1000000 4
b1000000 D
1$
#2790000
0$
#2795000
b111 V
1$
#2800000
0$
#2805000
b110 V
1$
#2810000
0$
#2815000
b101 V
1$
#2820000
0$
#2825000
b100 V
1$
#2830000
0$
#2835000
b11 V
1$
#2840000
0$
#2845000
b10 V
1$
#2850000
0$
#2855000
b1 V
1$
#2860000
0$
#2865000
b0 V
1$
#2870000
0$
#2875000
b1000010 ;
b1000010 O
1<
b10 ?
b0 4
b0 D
b1 8
b1 F
b1000001 5
b1000001 C
16
b1000001 1
b1000001 Q
12
10
1$
#2880000
0$
#2885000
b0 8
b0 F
b0 5
b0 C
06
b0 ;
b0 O
0<
b1000001 "
b1000001 9
b10 A
b1000010 R
b1000 V
00
02
b1000000 4
b1000000 D
1$
#2890000
0$
#2895000
b111 V
1$
#2900000
0$
#2905000
b110 V
1$
#2910000
0$
#2915000
b101 V
1$
#2920000
0$
#2925000
b100 V
1$
#2930000
0$
#2935000
b11 V
1$
#2940000
0$
#2945000
b10 V
1$
#2950000
0$
#2955000
b1 V
1$
#2960000
0$
#2965000
b0 V
1$
#2970000
0$
#2975000
b1000011 ;
b1000011 O
1<
b11 ?
b0 4
b0 D
b10 8
b10 F
b1000010 5
b1000010 C
16
b1000000 "
b1000000 9
b1000010 1
b1000010 Q
12
10
1$
#2980000
0$
#2985000
b0 8
b0 F
b0 5
b0 C
06
b0 ;
b0 O
0<
b1000010 "
b1000010 9
b11 A
b1000011 R
b1000 V
00
02
b1000000 4
b1000000 D
1$
#2990000
0$
#2995000
b111 V
1$
#3000000
0$
#3005000
b110 V
1$
#3010000
0$
#3015000
b101 V
1$
#3020000
0$
#3025000
b100 V
1$
#3030000
0$
#3035000
b11 V
1$
#3040000
0$
#3045000
b10 V
1$
#3050000
0$
#3055000
b1 V
1$
#3060000
0$
#3065000
b0 V
1$
#3070000
0$
#3075000
b1000100 ;
b1000100 O
1<
b100 ?
b0 4
b0 D
b11 8
b11 F
b1000011 5
b1000011 C
16
b1000000 "
b1000000 9
b1000011 1
b1000011 Q
12
10
1$
#3080000
0$
#3085000
b0 8
b0 F
b0 5
b0 C
06
b0 ;
b0 O
0<
b1000011 "
b1000011 9
b100 A
b1000100 R
b1000 V
00
02
b1000000 4
b1000000 D
1$
#3090000
0$
#3095000
b111 V
1$
#3100000
0$
#3105000
b110 V
1$
#3110000
0$
#3115000
b101 V
1$
#3120000
0$
#3125000
b100 V
1$
#3130000
0$
#3135000
b11 V
1$
#3140000
0$
#3145000
b10 V
1$
#3150000
0$
#3155000
b1 V
1$
#3160000
0$
#3165000
b0 V
1$
#3170000
0$
#3175000
b1000101 ;
b1000101 O
1<
b101 ?
b0 4
b0 D
b100 8
b100 F
b1000100 5
b1000100 C
16
b1000000 "
b1000000 9
b1000100 1
b1000100 Q
12
10
1$
#3180000
0$
#3185000
b0 8
b0 F
b0 5
b0 C
06
b0 ;
b0 O
0<
b1000100 "
b1000100 9
b101 A
b1000101 R
b1000 V
00
02
b1000000 4
b1000000 D
1$
#3190000
0$
#3195000
b111 V
1$
#3200000
0$
#3205000
b110 V
1$
#3210000
0$
#3215000
b101 V
1$
#3220000
0$
#3225000
b100 V
1$
#3230000
0$
#3235000
b11 V
1$
#3240000
0$
#3245000
b10 V
1$
#3250000
0$
#3255000
b1 V
1$
#3260000
0$
#3265000
b0 V
1$
#3270000
0$
#3275000
b1000110 ;
b1000110 O
1<
b110 ?
b0 4
b0 D
b101 8
b101 F
b1000101 5
b1000101 C
16
b1000000 "
b1000000 9
b1000101 1
b1000101 Q
12
10
1$
#3280000
0$
#3285000
b0 8
b0 F
b0 5
b0 C
06
b0 ;
b0 O
0<
b1000101 "
b1000101 9
b110 A
b1000110 R
b1000 V
00
02
b1000000 4
b1000000 D
1$
#3290000
0$
#3295000
b111 V
1$
#3300000
0$
#3305000
b110 V
1$
#3310000
0$
#3315000
b101 V
1$
#3320000
0$
#3325000
b100 V
1$
#3330000
0$
#3335000
b11 V
1$
#3340000
0$
#3345000
b10 V
1$
#3350000
0$
#3355000
b1 V
1$
#3360000
0$
#3365000
b0 V
1$
#3370000
0$
#3375000
b1000111 ;
b1000111 O
1<
b111 ?
b0 4
b0 D
b110 8
b110 F
b1000110 5
b1000110 C
16
b1000000 "
b1000000 9
b1000110 1
b1000110 Q
12
10
1$
#3380000
0$
#3385000
b0 8
b0 F
b0 5
b0 C
06
b0 ;
b0 O
0<
b1000110 "
b1000110 9
b111 A
b1000111 R
b1000 V
00
02
b1000000 4
b1000000 D
1$
#3390000
0$
#3395000
b111 V
1$
#3400000
0$
#3405000
b110 V
1$
#3410000
0$
#3415000
b101 V
1$
#3420000
0$
#3425000
b100 V
1$
#3430000
0$
#3435000
b11 V
1$
#3440000
0$
#3445000
b10 V
1$
#3450000
0$
#3455000
b1 V
1$
#3460000
0$
#3465000
b0 V
1$
#3470000
0$
#3475000
b0 @
1!
17
b0 4
b0 D
b111 8
b111 F
b1000111 5
b1000111 C
16
b1000000 "
b1000000 9
b1000111 1
b1000111 Q
12
10
1$
#3480000
0$
#3485000
b0 8
b0 F
b0 5
b0 C
07
06
b1000111 "
b1000111 9
0!
b0 B
02
b1000000 4
b1000000 D
1-
b1000000 X
b1000000 [
1$
